<?xml version="1.0" encoding="utf-8"?>
<!-- Generator: Adobe Illustrator 22.1.0, SVG Export Plug-In . SVG Version: 6.00 Build 0)  -->
<svg version="1.1" id="Layer_1" xmlns="http://www.w3.org/2000/svg" xmlns:xlink="http://www.w3.org/1999/xlink" x="0px" y="0px"
	 viewBox="0 0 280 110" style="enable-background:new 0 0 280 110;" xml:space="preserve">
<style type="text/css">
	.st0{fill:none;}
	.st1{fill:#F15A24;}
	.st2{font-family:'Chalkduster';}
	.st3{font-size:118.5839px;}
	.st4{font-size:55.3391px;}
</style>
<rect x="22" y="12" class="st0" width="225" height="90"/>
<text transform="matrix(1 0 0 1 0.9998 99.8132)" class="st1 st2 st3">KM</text>
<text transform="matrix(1 0 0 1 178.3992 99.8132)" class="st1 st2 st4">.KZ</text>
</svg>
