<?xml version="1.0" encoding="utf-8"?>
<!-- Generator: Adobe Illustrator 22.1.0, SVG Export Plug-In . SVG Version: 6.00 Build 0)  -->
<svg version="1.1" id="Layer_1" xmlns="http://www.w3.org/2000/svg" xmlns:xlink="http://www.w3.org/1999/xlink" x="0px" y="0px"
	 viewBox="0 0 280 110" style="enable-background:new 0 0 280 110;" xml:space="preserve">
<style type="text/css">
	.st0{fill:none;}
	.st1{fill:#FA8426;}
	.st2{font-family:'Chalkduster';}
	.st3{font-size:95px;}
	.st4{font-size:55px;}
</style>
<rect x="11.1" y="5" class="st0" width="281.9" height="110"/>
<text transform="matrix(1 0 0 1 11.1372 86.7744)" class="st1 st2 st3">KM</text>
<text transform="matrix(1 0 0 1 153.2372 86.7744)" class="st1 st2 st4">.KZ</text>
</svg>
